Library/FullAdder/simulation/qsim/FullAdder.msim.vcd
$comment
	File created using the following command:
		vcd file FullAdder.msim.vcd -direction
$end
$date
	Sat Sep 12 12:03:37 2015
$end
$version
	ModelSim Version 10.3d
$end
$timescale
	1ps
$end

$scope module FullAdder_vlg_vec_tst $end
$var reg 1 ! A $end
$var reg 1 " B $end
$var reg 1 # Cin $end
$var wire 1 $ cout $end
$var wire 1 % S $end
$var wire 1 & sampler $end

$scope module i1 $end
$var wire 1 ' gnd $end
$var wire 1 ( vcc $end
$var wire 1 ) unknown $end
$var tri1 1 * devclrn $end
$var tri1 1 + devpor $end
$var tri1 1 , devoe $end
$var wire 1 - ~QUARTUS_CREATED_GND~I_combout $end
$var wire 1 . A~input_o $end
$var wire 1 / Cin~input_o $end
$var wire 1 0 B~input_o $end
$var wire 1 1 cout~0_combout $end
$var wire 1 2 S~0_combout $end
$upscope $end
$upscope $end
$enddefinitions $end
#0
$dumpvars
0!
0"
0#
0$
0%
x&
0'
1(
x)
1*
1+
1,
0-
0.
0/
00
01
02
$end
#40000
1!
1.
0&
12
1%
#130000
1"
0!
10
0.
1&
#210000
1!
1.
0&
02
11
1$
0%
#280000
1#
0"
0!
1/
00
0.
1&
12
01
0$
1%
#350000
1!
1.
0&
02
11
1$
0%
#420000
1"
0!
10
0.
1&
#480000
1!
1.
0&
12
1%
#560000
0#
0"
0!
0/
00
0.
1&
02
01
0$
0%
