Library/Arithmetic_Unit/simulation/qsim/Arithmetic_Unit.msim.vcd
$comment
	File created using the following command:
		vcd file Arithmetic_Unit.msim.vcd -direction
$end
$date
	Sat Sep 12 12:21:58 2015
$end
$version
	ModelSim Version 10.3d
$end
$timescale
	1ps
$end

$scope module Arithmetic_Unit_vlg_vec_tst $end
$var reg 4 ! a [3:0] $end
$var reg 4 " b [3:0] $end
$var reg 1 # cin $end
$var wire 1 $ cout $end
$var wire 1 % F [3] $end
$var wire 1 & F [2] $end
$var wire 1 ' F [1] $end
$var wire 1 ( F [0] $end
$var wire 1 ) sampler $end

$scope module i1 $end
$var wire 1 * gnd $end
$var wire 1 + vcc $end
$var wire 1 , unknown $end
$var tri1 1 - devclrn $end
$var tri1 1 . devpor $end
$var tri1 1 / devoe $end
$var wire 1 0 ~QUARTUS_CREATED_GND~I_combout $end
$var wire 1 1 a[0]~input_o $end
$var wire 1 2 b[0]~input_o $end
$var wire 1 3 cin~input_o $end
$var wire 1 4 full_adder_1|S~0_combout $end
$var wire 1 5 a[1]~input_o $end
$var wire 1 6 b[1]~input_o $end
$var wire 1 7 full_adder_2|S~0_combout $end
$var wire 1 8 a[2]~input_o $end
$var wire 1 9 full_adder_2|cout~combout $end
$var wire 1 : b[2]~input_o $end
$var wire 1 ; full_adder_3|S~0_combout $end
$var wire 1 < a[3]~input_o $end
$var wire 1 = b[3]~input_o $end
$var wire 1 > full_adder_4|S~0_combout $end
$var wire 1 ? full_adder_4|cout~combout $end
$upscope $end
$upscope $end
$enddefinitions $end
#0
$dumpvars
b0 !
b1 "
0#
0$
1(
0'
0&
0%
x)
0*
1+
x,
1-
1.
1/
00
01
12
03
14
05
06
07
08
09
0:
0;
0<
0=
0>
0?
$end
#50000
b1 !
11
0)
17
04
0(
1'
#100000
b11 !
b10 !
01
15
1)
14
1(
#150000
b11 !
11
0)
19
07
04
0(
0'
1;
1&
#200000
b111 !
b101 !
b100 !
01
05
18
1)
09
1>
0;
14
1(
0&
1%
0>
1;
1&
0%
#250000
b101 !
11
0)
17
04
0(
1'
#300000
b111 !
b110 !
01
15
1)
14
1(
#350000
b111 !
11
0)
19
07
04
0(
0'
1>
0;
0&
1%
#400000
b1111 !
b1011 !
b1001 !
b1000 !
01
05
08
1<
1)
09
1;
14
1(
1&
0;
0&
#450000
b1001 !
11
0)
17
04
0(
1'
#500000
b1011 !
b1010 !
01
15
1)
14
1(
#550000
b1011 !
11
0)
19
07
04
0(
0'
1;
1&
#600000
b1111 !
b1101 !
b1100 !
01
05
18
1)
09
1?
0>
0;
14
1(
0&
0%
1$
0?
1>
1;
1&
1%
0$
#650000
b1101 !
11
0)
17
04
0(
1'
#700000
b1111 !
b1110 !
01
15
1)
14
1(
#750000
b1111 !
11
0)
19
07
04
0(
0'
1?
0>
0;
0&
0%
1$
#800000
b111 !
b11 !
b1 !
b0 !
01
05
08
0<
1)
09
0?
1;
14
1(
1&
0$
0;
0&
#850000
b1 !
11
0)
17
04
0(
1'
#900000
b11 !
b10 !
01
15
1)
14
1(
#950000
b11 !
11
0)
19
07
04
0(
0'
1;
1&
